<svg xmlns="http://www.w3.org/2000/svg" viewBox="0 0 42 19.5">
  <title>Arrow Right</title>
  <path d="M1,9.75H41M32.25,18.5,41,9.75,32.25,1" style="fill:none;stroke:#fff;stroke-linecap:round;stroke-linejoin:round;stroke-width:2px"/>
</svg>
