<svg xmlns="http://www.w3.org/2000/svg" viewBox="0 0 24 24" fill="none" stroke="#fff" stroke-width="2" stroke-linecap="round" stroke-linejoin="round">
  <title>Information Icon</title>
  <circle cx="12" cy="12" r="10"></circle>
  <line x1="12" y1="16" x2="12" y2="12"></line>
  <line x1="12" y1="8" x2="12" y2="8"></line>
</svg>
